Computer Architecture/Lab 10/dump.vcd
$date
	Thu Nov 05 15:08:07 2020
$end
$version
	ModelSim Version 10.5b
$end
$timescale
	1ps
$end

$scope module ripple_carry_testbench $end
$var reg 16 ! in1 [15:0] $end
$var reg 16 " in2 [15:0] $end
$var wire 1 # out [15] $end
$var wire 1 $ out [14] $end
$var wire 1 % out [13] $end
$var wire 1 & out [12] $end
$var wire 1 ' out [11] $end
$var wire 1 ( out [10] $end
$var wire 1 ) out [9] $end
$var wire 1 * out [8] $end
$var wire 1 + out [7] $end
$var wire 1 , out [6] $end
$var wire 1 - out [5] $end
$var wire 1 . out [4] $end
$var wire 1 / out [3] $end
$var wire 1 0 out [2] $end
$var wire 1 1 out [1] $end
$var wire 1 2 out [0] $end
$var wire 1 3 overflow $end

$scope module rc $end
$var wire 1 4 x [15] $end
$var wire 1 5 x [14] $end
$var wire 1 6 x [13] $end
$var wire 1 7 x [12] $end
$var wire 1 8 x [11] $end
$var wire 1 9 x [10] $end
$var wire 1 : x [9] $end
$var wire 1 ; x [8] $end
$var wire 1 < x [7] $end
$var wire 1 = x [6] $end
$var wire 1 > x [5] $end
$var wire 1 ? x [4] $end
$var wire 1 @ x [3] $end
$var wire 1 A x [2] $end
$var wire 1 B x [1] $end
$var wire 1 C x [0] $end
$var wire 1 D y [15] $end
$var wire 1 E y [14] $end
$var wire 1 F y [13] $end
$var wire 1 G y [12] $end
$var wire 1 H y [11] $end
$var wire 1 I y [10] $end
$var wire 1 J y [9] $end
$var wire 1 K y [8] $end
$var wire 1 L y [7] $end
$var wire 1 M y [6] $end
$var wire 1 N y [5] $end
$var wire 1 O y [4] $end
$var wire 1 P y [3] $end
$var wire 1 Q y [2] $end
$var wire 1 R y [1] $end
$var wire 1 S y [0] $end
$var wire 1 # s [15] $end
$var wire 1 $ s [14] $end
$var wire 1 % s [13] $end
$var wire 1 & s [12] $end
$var wire 1 ' s [11] $end
$var wire 1 ( s [10] $end
$var wire 1 ) s [9] $end
$var wire 1 * s [8] $end
$var wire 1 + s [7] $end
$var wire 1 , s [6] $end
$var wire 1 - s [5] $end
$var wire 1 . s [4] $end
$var wire 1 / s [3] $end
$var wire 1 0 s [2] $end
$var wire 1 1 s [1] $end
$var wire 1 2 s [0] $end
$var wire 1 3 cout $end
$var wire 1 T c [15] $end
$var wire 1 U c [14] $end
$var wire 1 V c [13] $end
$var wire 1 W c [12] $end
$var wire 1 X c [11] $end
$var wire 1 Y c [10] $end
$var wire 1 Z c [9] $end
$var wire 1 [ c [8] $end
$var wire 1 \ c [7] $end
$var wire 1 ] c [6] $end
$var wire 1 ^ c [5] $end
$var wire 1 _ c [4] $end
$var wire 1 ` c [3] $end
$var wire 1 a c [2] $end
$var wire 1 b c [1] $end
$var wire 1 c c [0] $end

$scope begin block_name[15] $end
$var parameter 32 d i $end

$scope module fa $end
$var wire 1 4 x $end
$var wire 1 D y $end
$var wire 1 U cin $end
$var reg 1 e s $end
$var reg 1 f cout $end
$upscope $end
$upscope $end

$scope begin block_name[14] $end
$var parameter 32 g i $end

$scope module fa $end
$var wire 1 5 x $end
$var wire 1 E y $end
$var wire 1 V cin $end
$var reg 1 h s $end
$var reg 1 i cout $end
$upscope $end
$upscope $end

$scope begin block_name[13] $end
$var parameter 32 j i $end

$scope module fa $end
$var wire 1 6 x $end
$var wire 1 F y $end
$var wire 1 W cin $end
$var reg 1 k s $end
$var reg 1 l cout $end
$upscope $end
$upscope $end

$scope begin block_name[12] $end
$var parameter 32 m i $end

$scope module fa $end
$var wire 1 7 x $end
$var wire 1 G y $end
$var wire 1 X cin $end
$var reg 1 n s $end
$var reg 1 o cout $end
$upscope $end
$upscope $end

$scope begin block_name[11] $end
$var parameter 32 p i $end

$scope module fa $end
$var wire 1 8 x $end
$var wire 1 H y $end
$var wire 1 Y cin $end
$var reg 1 q s $end
$var reg 1 r cout $end
$upscope $end
$upscope $end

$scope begin block_name[10] $end
$var parameter 32 s i $end

$scope module fa $end
$var wire 1 9 x $end
$var wire 1 I y $end
$var wire 1 Z cin $end
$var reg 1 t s $end
$var reg 1 u cout $end
$upscope $end
$upscope $end

$scope begin block_name[9] $end
$var parameter 32 v i $end

$scope module fa $end
$var wire 1 : x $end
$var wire 1 J y $end
$var wire 1 [ cin $end
$var reg 1 w s $end
$var reg 1 x cout $end
$upscope $end
$upscope $end

$scope begin block_name[8] $end
$var parameter 32 y i $end

$scope module fa $end
$var wire 1 ; x $end
$var wire 1 K y $end
$var wire 1 \ cin $end
$var reg 1 z s $end
$var reg 1 { cout $end
$upscope $end
$upscope $end

$scope begin block_name[7] $end
$var parameter 32 | i $end

$scope module fa $end
$var wire 1 < x $end
$var wire 1 L y $end
$var wire 1 ] cin $end
$var reg 1 } s $end
$var reg 1 ~ cout $end
$upscope $end
$upscope $end

$scope begin block_name[6] $end
$var parameter 32 !! i $end

$scope module fa $end
$var wire 1 = x $end
$var wire 1 M y $end
$var wire 1 ^ cin $end
$var reg 1 "! s $end
$var reg 1 #! cout $end
$upscope $end
$upscope $end

$scope begin block_name[5] $end
$var parameter 32 $! i $end

$scope module fa $end
$var wire 1 > x $end
$var wire 1 N y $end
$var wire 1 _ cin $end
$var reg 1 %! s $end
$var reg 1 &! cout $end
$upscope $end
$upscope $end

$scope begin block_name[4] $end
$var parameter 32 '! i $end

$scope module fa $end
$var wire 1 ? x $end
$var wire 1 O y $end
$var wire 1 ` cin $end
$var reg 1 (! s $end
$var reg 1 )! cout $end
$upscope $end
$upscope $end

$scope begin block_name[3] $end
$var parameter 32 *! i $end

$scope module fa $end
$var wire 1 @ x $end
$var wire 1 P y $end
$var wire 1 a cin $end
$var reg 1 +! s $end
$var reg 1 ,! cout $end
$upscope $end
$upscope $end

$scope begin block_name[2] $end
$var parameter 32 -! i $end

$scope module fa $end
$var wire 1 A x $end
$var wire 1 Q y $end
$var wire 1 b cin $end
$var reg 1 .! s $end
$var reg 1 /! cout $end
$upscope $end
$upscope $end

$scope begin block_name[1] $end
$var parameter 32 0! i $end

$scope module fa $end
$var wire 1 B x $end
$var wire 1 R y $end
$var wire 1 c cin $end
$var reg 1 1! s $end
$var reg 1 2! cout $end
$upscope $end
$upscope $end

$scope module ha $end
$var wire 1 C x $end
$var wire 1 S y $end
$var reg 1 3! s $end
$var reg 1 4! c $end
$upscope $end
$upscope $end
$upscope $end
$enddefinitions $end
#0
$dumpvars
b0 !
b0 "
03!
04!
01!
02!
0.!
0/!
0+!
0,!
0(!
0)!
0%!
0&!
0"!
0#!
0}
0~
0z
0{
0w
0x
0t
0u
0q
0r
0n
0o
0k
0l
0h
0i
0e
0f
b1 0!
b10 -!
b11 *!
b100 '!
b101 $!
b110 !!
b111 |
b1000 y
b1001 v
b1010 s
b1011 p
b1100 m
b1101 j
b1110 g
b1111 d
02
01
00
0/
0.
0-
0,
0+
0*
0)
0(
0'
0&
0%
0$
0#
03
0c
0b
0a
0`
0_
0^
0]
0\
0[
0Z
0Y
0X
0W
0V
0U
0T
0S
0R
0Q
0P
0O
0N
0M
0L
0K
0J
0I
0H
0G
0F
0E
0D
0C
0B
0A
0@
0?
0>
0=
0<
0;
0:
09
08
07
06
05
04
$end
#5
b1 !
1C
13!
12
#10
b1 "
1S
14!
03!
02
1c
11!
11
#15
b10 !
0C
1B
04!
13!
12!
01!
12
01
0c
1b
02!
11!
1.!
11
10
0b
0.!
00
#20
b11000111 !
b1100001 "
1N
1M
1C
1A
1=
1<
1%!
1#!
14!
03!
1.!
1}
1-
02
10
1+
1]
1c
1~
0}
12!
01!
0+
01
1\
1b
1z
1/!
0.!
1*
00
1a
1+!
1/
#25
b10000001 !
b0 "
0S
0N
0M
0B
0A
0=
04!
13!
0%!
0#!
02!
11!
0/!
1.!
12
0-
11
10
0c
0]
0b
0a
01!
0~
1}
0.!
0+!
01
1+
00
0/
0\
0z
0*
#30
b1111111111111111 !
b1111111111111111 "
1S
1R
1Q
1P
1O
1N
1M
1L
1K
1J
1I
1H
1G
1F
1E
1D
1B
1A
1@
1?
1>
1=
1;
1:
19
18
17
16
15
14
14!
03!
12!
1/!
1,!
1)!
1&!
1#!
1~
0}
1{
1x
1u
1r
1o
1l
1i
1f
02
0+
1T
13
1c
1b
1a
1`
1_
1^
1]
1\
1[
1Z
1Y
1X
1W
1V
1U
11!
1.!
1+!
1(!
1%!
1"!
1}
1z
1w
1t
1q
1n
1k
1h
1e
11
10
1/
1.
1-
1,
1+
1*
1)
1(
1'
1&
1%
1$
1#
#35
b1 "
0R
0Q
0P
0O
0N
0M
0L
0K
0J
0I
0H
0G
0F
0E
0D
01!
0.!
0+!
0(!
0%!
0"!
0}
0z
0w
0t
0q
0n
0k
0h
0e
01
00
0/
0.
0-
0,
0+
0*
0)
0(
0'
0&
0%
0$
0#
#40
b0 "
0S
04!
13!
12
0c
02!
11!
11
0b
0/!
1.!
10
0a
0,!
1+!
1/
0`
0)!
1(!
1.
0_
0&!
1%!
1-
0^
0#!
1"!
1,
0]
0~
1}
1+
0\
0{
1z
1*
0[
0x
1w
1)
0Z
0u
1t
1(
0Y
0r
1q
1'
0X
0o
1n
1&
0W
0l
1k
1%
0V
0i
1h
1$
0U
0f
1e
0T
1#
03
